3: [441,429]
6: [562,1244,735,868,163]
4: [2343,1412,1249,917,706,951,707]
1: [233]
7: [418,228,1090,716,424,207,217]
10: [285,295,292,257,461,310,301,293,157,1464,903,525,475,298,291,329,701,466,349,344,318,306,302,300,299,289,288,89]
8: [331,81,1400,546,238,58,53,227,56,154,1098]
5: [997,187,1001,51,599,59,72,511,159]
9: [481,1246,230,982,533,203,172,538,498,486,436,234,209,198,7,333,229,378,220,377,1375,182,55,959,316,190,70,65,173,67]
2: []
